4.Advanced--4--Yamaha-OPL3-FM-Synth/4.dac/3.build/luttable_lut_module/2.sim/sinewave_waves.vcd
$date
	Wed Sep 18 12:18:11 2024
$end
$version
	Icarus Verilog
$end
$timescale
	1ps
$end
$scope module sinewave_generator $end
$var wire 1 ! arst $end
$var wire 1 " clk $end
$var wire 64 # phase_increment [63:0] $end
$var wire 1 $ sample_clk_ce $end
$var wire 16 % sinewave [15:0] $end
$var wire 16 & cosinewave [15:0] $end
$var parameter 32 ' DATA_WIDTH $end
$var parameter 32 ( LUT_DEPTH $end
$var parameter 32 ) PHASE_WIDTH $end
$var reg 64 * phase_accumulator [63:0] $end
$scope module cosinewave_inst $end
$var wire 8 + address [7:0] $end
$var parameter 32 , DATA_WIDTH $end
$var parameter 32 - LUT_DEPTH $end
$var reg 16 . value [15:0] $end
$upscope $end
$scope module sinewave_inst $end
$var wire 8 / address [7:0] $end
$var parameter 32 0 DATA_WIDTH $end
$var parameter 32 1 LUT_DEPTH $end
$var reg 16 2 value [15:0] $end
$upscope $end
$upscope $end
$enddefinitions $end
$comment Show the parameter values. $end
$dumpall
b1000 1
b10000 0
b1000 -
b10000 ,
b1000000 )
b1000 (
b10000 '
$end
#0
$dumpvars
b111111111111111 2
b0 /
b1111111111111111 .
b1000000 +
b0 *
b1111111111111111 &
b111111111111111 %
1$
b10000000000000000000000000000000000000000000000000000000000 #
1"
1!
$end
#6250
0"
#12500
0!
1"
#18750
0"
#25000
b1111111101100001 &
b1111111101100001 .
b1000110010001011 %
b1000110010001011 2
b1000100 +
b100 /
b10000000000000000000000000000000000000000000000000000000000 *
1"
#31250
0"
#37500
b1111110110001001 &
b1111110110001001 .
b1001100011111000 %
b1001100011111000 2
b1001000 +
b1000 /
b100000000000000000000000000000000000000000000000000000000000 *
1"
#43750
0"
#50000
b1111101001111100 &
b1111101001111100 .
b1010010100100111 %
b1010010100100111 2
b1001100 +
b1100 /
b110000000000000000000000000000000000000000000000000000000000 *
1"
#56250
0"
#62500
b1111011001000000 &
b1111011001000000 .
b1011000011111011 %
b1011000011111011 2
b1010000 +
b10000 /
b1000000000000000000000000000000000000000000000000000000000000 *
1"
#68750
0"
#75000
b1111000011100001 &
b1111000011100001 .
b1011110001010101 %
b1011110001010101 2
b1010100 +
b10100 /
b1010000000000000000000000000000000000000000000000000000000000 *
1"
#81250
0"
#87500
b1110101001101100 &
b1110101001101100 .
b1100011100011100 %
b1100011100011100 2
b1011000 +
b11000 /
b1100000000000000000000000000000000000000000000000000000000000 *
1"
#93750
0"
#100000
b1110001011110001 &
b1110001011110001 .
b1101000100110010 %
b1101000100110010 2
b1011100 +
b11100 /
b1110000000000000000000000000000000000000000000000000000000000 *
1"
#106250
0"
#112500
b1101101010000001 &
b1101101010000001 .
b1101101010000001 %
b1101101010000001 2
b1100000 +
b100000 /
b10000000000000000000000000000000000000000000000000000000000000 *
1"
#118750
0"
#125000
b1101000100110010 &
b1101000100110010 .
b1110001011110001 %
b1110001011110001 2
b1100100 +
b100100 /
b10010000000000000000000000000000000000000000000000000000000000 *
1"
#131250
0"
#137500
b1100011100011100 &
b1100011100011100 .
b1110101001101100 %
b1110101001101100 2
b1101000 +
b101000 /
b10100000000000000000000000000000000000000000000000000000000000 *
1"
#143750
0"
#150000
b1011110001010101 &
b1011110001010101 .
b1111000011100001 %
b1111000011100001 2
b1101100 +
b101100 /
b10110000000000000000000000000000000000000000000000000000000000 *
1"
#156250
0"
#162500
b1011000011111011 &
b1011000011111011 .
b1111011001000000 %
b1111011001000000 2
b1110000 +
b110000 /
b11000000000000000000000000000000000000000000000000000000000000 *
1"
#168750
0"
#175000
b1010010100100111 &
b1010010100100111 .
b1111101001111100 %
b1111101001111100 2
b1110100 +
b110100 /
b11010000000000000000000000000000000000000000000000000000000000 *
1"
#181250
0"
#187500
b1001100011111000 &
b1001100011111000 .
b1111110110001001 %
b1111110110001001 2
b1111000 +
b111000 /
b11100000000000000000000000000000000000000000000000000000000000 *
1"
#193750
0"
#200000
b1000110010001011 &
b1000110010001011 .
b1111111101100001 %
b1111111101100001 2
b1111100 +
b111100 /
b11110000000000000000000000000000000000000000000000000000000000 *
1"
#206250
0"
#212500
b111111111111111 &
b111111111111111 .
b1111111111111111 %
b1111111111111111 2
b10000000 +
b1000000 /
b100000000000000000000000000000000000000000000000000000000000000 *
1"
#218750
0"
#225000
b111001101110011 &
b111001101110011 .
b1111111101100001 %
b1111111101100001 2
b10000100 +
b1000100 /
b100010000000000000000000000000000000000000000000000000000000000 *
1"
#231250
0"
#237500
b110011100000110 &
b110011100000110 .
b1111110110001001 %
b1111110110001001 2
b10001000 +
b1001000 /
b100100000000000000000000000000000000000000000000000000000000000 *
1"
#243750
0"
#250000
b101101011010111 &
b101101011010111 .
b1111101001111100 %
b1111101001111100 2
b10001100 +
b1001100 /
b100110000000000000000000000000000000000000000000000000000000000 *
1"
#256250
0"
#262500
b100111100000011 &
b100111100000011 .
b1111011001000000 %
b1111011001000000 2
b10010000 +
b1010000 /
b101000000000000000000000000000000000000000000000000000000000000 *
1"
#268750
0"
#275000
b100001110101001 &
b100001110101001 .
b1111000011100001 %
b1111000011100001 2
b10010100 +
b1010100 /
b101010000000000000000000000000000000000000000000000000000000000 *
1"
#281250
0"
#287500
b11100011100010 &
b11100011100010 .
b1110101001101100 %
b1110101001101100 2
b10011000 +
b1011000 /
b101100000000000000000000000000000000000000000000000000000000000 *
1"
#293750
0"
#300000
b10111011001100 &
b10111011001100 .
b1110001011110001 %
b1110001011110001 2
b10011100 +
b1011100 /
b101110000000000000000000000000000000000000000000000000000000000 *
1"
#306250
0"
#312500
b10010101111101 &
b10010101111101 .
b1101101010000001 %
b1101101010000001 2
b10100000 +
b1100000 /
b110000000000000000000000000000000000000000000000000000000000000 *
1"
#318750
0"
#325000
b1110100001101 &
b1110100001101 .
b1101000100110010 %
b1101000100110010 2
b10100100 +
b1100100 /
b110010000000000000000000000000000000000000000000000000000000000 *
1"
#331250
0"
#337500
b1010110010010 &
b1010110010010 .
b1100011100011100 %
b1100011100011100 2
b10101000 +
b1101000 /
b110100000000000000000000000000000000000000000000000000000000000 *
1"
#343750
0"
#350000
b111100011101 &
b111100011101 .
b1011110001010101 %
b1011110001010101 2
b10101100 +
b1101100 /
b110110000000000000000000000000000000000000000000000000000000000 *
1"
#356250
0"
#362500
b100110111110 &
b100110111110 .
b1011000011111011 %
b1011000011111011 2
b10110000 +
b1110000 /
b111000000000000000000000000000000000000000000000000000000000000 *
1"
#368750
0"
#375000
b10110000010 &
b10110000010 .
b1010010100100111 %
b1010010100100111 2
b10110100 +
b1110100 /
b111010000000000000000000000000000000000000000000000000000000000 *
1"
#381250
0"
#387500
b1001110101 &
b1001110101 .
b1001100011111000 %
b1001100011111000 2
b10111000 +
b1111000 /
b111100000000000000000000000000000000000000000000000000000000000 *
1"
#393750
0"
#400000
b10011101 &
b10011101 .
b1000110010001011 %
b1000110010001011 2
b10111100 +
b1111100 /
b111110000000000000000000000000000000000000000000000000000000000 *
1"
#406250
0"
#412500
b0 &
b0 .
b111111111111111 %
b111111111111111 2
b11000000 +
b10000000 /
b1000000000000000000000000000000000000000000000000000000000000000 *
1"
#418750
0"
#425000
b10011101 &
b10011101 .
b111001101110011 %
b111001101110011 2
b11000100 +
b10000100 /
b1000010000000000000000000000000000000000000000000000000000000000 *
1"
#431250
0"
#437500
b1001110101 &
b1001110101 .
b110011100000110 %
b110011100000110 2
b11001000 +
b10001000 /
b1000100000000000000000000000000000000000000000000000000000000000 *
1"
#443750
0"
#450000
b10110000010 &
b10110000010 .
b101101011010111 %
b101101011010111 2
b11001100 +
b10001100 /
b1000110000000000000000000000000000000000000000000000000000000000 *
1"
#456250
0"
#462500
b100110111110 &
b100110111110 .
b100111100000011 %
b100111100000011 2
b11010000 +
b10010000 /
b1001000000000000000000000000000000000000000000000000000000000000 *
1"
#468750
0"
#475000
b111100011101 &
b111100011101 .
b100001110101001 %
b100001110101001 2
b11010100 +
b10010100 /
b1001010000000000000000000000000000000000000000000000000000000000 *
1"
#481250
0"
#487500
b1010110010010 &
b1010110010010 .
b11100011100010 %
b11100011100010 2
b11011000 +
b10011000 /
b1001100000000000000000000000000000000000000000000000000000000000 *
1"
#493750
0"
#500000
b1110100001101 &
b1110100001101 .
b10111011001100 %
b10111011001100 2
b11011100 +
b10011100 /
b1001110000000000000000000000000000000000000000000000000000000000 *
1"
#506250
0"
#512500
b10010101111101 &
b10010101111101 .
b10010101111101 %
b10010101111101 2
b11100000 +
b10100000 /
b1010000000000000000000000000000000000000000000000000000000000000 *
1"
#518750
0"
#525000
b10111011001100 &
b10111011001100 .
b1110100001101 %
b1110100001101 2
b11100100 +
b10100100 /
b1010010000000000000000000000000000000000000000000000000000000000 *
1"
#531250
0"
#537500
b11100011100010 &
b11100011100010 .
b1010110010010 %
b1010110010010 2
b11101000 +
b10101000 /
b1010100000000000000000000000000000000000000000000000000000000000 *
1"
#543750
0"
#550000
b100001110101001 &
b100001110101001 .
b111100011101 %
b111100011101 2
b11101100 +
b10101100 /
b1010110000000000000000000000000000000000000000000000000000000000 *
1"
#556250
0"
#562500
b100111100000011 &
b100111100000011 .
b100110111110 %
b100110111110 2
b11110000 +
b10110000 /
b1011000000000000000000000000000000000000000000000000000000000000 *
1"
#568750
0"
#575000
b101101011010111 &
b101101011010111 .
b10110000010 %
b10110000010 2
b11110100 +
b10110100 /
b1011010000000000000000000000000000000000000000000000000000000000 *
1"
#581250
0"
#587500
b110011100000110 &
b110011100000110 .
b1001110101 %
b1001110101 2
b11111000 +
b10111000 /
b1011100000000000000000000000000000000000000000000000000000000000 *
1"
#593750
0"
#600000
b111001101110011 &
b111001101110011 .
b10011101 %
b10011101 2
b11111100 +
b10111100 /
b1011110000000000000000000000000000000000000000000000000000000000 *
1"
#606250
0"
#612500
b111111111111111 &
b111111111111111 .
b0 %
b0 2
b0 +
b11000000 /
b1100000000000000000000000000000000000000000000000000000000000000 *
1"
#618750
0"
#625000
b1000110010001011 &
b1000110010001011 .
b10011101 %
b10011101 2
b100 +
b11000100 /
b1100010000000000000000000000000000000000000000000000000000000000 *
1"
#631250
0"
#637500
b1001100011111000 &
b1001100011111000 .
b1001110101 %
b1001110101 2
b1000 +
b11001000 /
b1100100000000000000000000000000000000000000000000000000000000000 *
1"
#643750
0"
#650000
b1010010100100111 &
b1010010100100111 .
b10110000010 %
b10110000010 2
b1100 +
b11001100 /
b1100110000000000000000000000000000000000000000000000000000000000 *
1"
#656250
0"
#662500
b1011000011111011 &
b1011000011111011 .
b100110111110 %
b100110111110 2
b10000 +
b11010000 /
b1101000000000000000000000000000000000000000000000000000000000000 *
1"
#668750
0"
#675000
b1011110001010101 &
b1011110001010101 .
b111100011101 %
b111100011101 2
b10100 +
b11010100 /
b1101010000000000000000000000000000000000000000000000000000000000 *
1"
#681250
0"
#687500
b1100011100011100 &
b1100011100011100 .
b1010110010010 %
b1010110010010 2
b11000 +
b11011000 /
b1101100000000000000000000000000000000000000000000000000000000000 *
1"
#693750
0"
#700000
b1101000100110010 &
b1101000100110010 .
b1110100001101 %
b1110100001101 2
b11100 +
b11011100 /
b1101110000000000000000000000000000000000000000000000000000000000 *
1"
#706250
0"
#712500
b1101101010000001 &
b1101101010000001 .
b10010101111101 %
b10010101111101 2
b100000 +
b11100000 /
b1110000000000000000000000000000000000000000000000000000000000000 *
1"
#718750
0"
#725000
b1110001011110001 &
b1110001011110001 .
b10111011001100 %
b10111011001100 2
b100100 +
b11100100 /
b1110010000000000000000000000000000000000000000000000000000000000 *
1"
#731250
0"
#737500
b1110101001101100 &
b1110101001101100 .
b11100011100010 %
b11100011100010 2
b101000 +
b11101000 /
b1110100000000000000000000000000000000000000000000000000000000000 *
1"
#743750
0"
#750000
b1111000011100001 &
b1111000011100001 .
b100001110101001 %
b100001110101001 2
b101100 +
b11101100 /
b1110110000000000000000000000000000000000000000000000000000000000 *
1"
#756250
0"
#762500
b1111011001000000 &
b1111011001000000 .
b100111100000011 %
b100111100000011 2
b110000 +
b11110000 /
b1111000000000000000000000000000000000000000000000000000000000000 *
1"
#768750
0"
#775000
b1111101001111100 &
b1111101001111100 .
b101101011010111 %
b101101011010111 2
b110100 +
b11110100 /
b1111010000000000000000000000000000000000000000000000000000000000 *
1"
#781250
0"
#787500
b1111110110001001 &
b1111110110001001 .
b110011100000110 %
b110011100000110 2
b111000 +
b11111000 /
b1111100000000000000000000000000000000000000000000000000000000000 *
1"
#793750
0"
#800000
b1111111101100001 &
b1111111101100001 .
b111001101110011 %
b111001101110011 2
b111100 +
b11111100 /
b1111110000000000000000000000000000000000000000000000000000000000 *
1"
#806250
0"
#812500
b1111111111111111 &
b1111111111111111 .
b111111111111111 %
b111111111111111 2
b1000000 +
b0 /
b0 *
1"
#818750
0"
#825000
b1111111101100001 &
b1111111101100001 .
b1000110010001011 %
b1000110010001011 2
b1000100 +
b100 /
b10000000000000000000000000000000000000000000000000000000000 *
1"
#831250
0"
#837500
b1111110110001001 &
b1111110110001001 .
b1001100011111000 %
b1001100011111000 2
b1001000 +
b1000 /
b100000000000000000000000000000000000000000000000000000000000 *
1"
#843750
0"
#850000
b1111101001111100 &
b1111101001111100 .
b1010010100100111 %
b1010010100100111 2
b1001100 +
b1100 /
b110000000000000000000000000000000000000000000000000000000000 *
1"
#856250
0"
#862500
b1111011001000000 &
b1111011001000000 .
b1011000011111011 %
b1011000011111011 2
b1010000 +
b10000 /
b1000000000000000000000000000000000000000000000000000000000000 *
1"
#868750
0"
#875000
b1111000011100001 &
b1111000011100001 .
b1011110001010101 %
b1011110001010101 2
b1010100 +
b10100 /
b1010000000000000000000000000000000000000000000000000000000000 *
1"
#881250
0"
#887500
b1110101001101100 &
b1110101001101100 .
b1100011100011100 %
b1100011100011100 2
b1011000 +
b11000 /
b1100000000000000000000000000000000000000000000000000000000000 *
1"
#893750
0"
#900000
b1110001011110001 &
b1110001011110001 .
b1101000100110010 %
b1101000100110010 2
b1011100 +
b11100 /
b1110000000000000000000000000000000000000000000000000000000000 *
1"
#906250
0"
#912500
b1101101010000001 &
b1101101010000001 .
b1101101010000001 %
b1101101010000001 2
b1100000 +
b100000 /
b10000000000000000000000000000000000000000000000000000000000000 *
1"
#918750
0"
#925000
b1101000100110010 &
b1101000100110010 .
b1110001011110001 %
b1110001011110001 2
b1100100 +
b100100 /
b10010000000000000000000000000000000000000000000000000000000000 *
1"
#931250
0"
#937500
b1100011100011100 &
b1100011100011100 .
b1110101001101100 %
b1110101001101100 2
b1101000 +
b101000 /
b10100000000000000000000000000000000000000000000000000000000000 *
1"
#943750
0"
#950000
b1011110001010101 &
b1011110001010101 .
b1111000011100001 %
b1111000011100001 2
b1101100 +
b101100 /
b10110000000000000000000000000000000000000000000000000000000000 *
1"
#956250
0"
#962500
b1011000011111011 &
b1011000011111011 .
b1111011001000000 %
b1111011001000000 2
b1110000 +
b110000 /
b11000000000000000000000000000000000000000000000000000000000000 *
1"
#968750
0"
#975000
b1010010100100111 &
b1010010100100111 .
b1111101001111100 %
b1111101001111100 2
b1110100 +
b110100 /
b11010000000000000000000000000000000000000000000000000000000000 *
1"
#981250
0"
#987500
b1001100011111000 &
b1001100011111000 .
b1111110110001001 %
b1111110110001001 2
b1111000 +
b111000 /
b11100000000000000000000000000000000000000000000000000000000000 *
1"
#993750
0"
#1000000
b1000110010001011 &
b1000110010001011 .
b1111111101100001 %
b1111111101100001 2
b1111100 +
b111100 /
b11110000000000000000000000000000000000000000000000000000000000 *
1"
#1006250
0"
#1012500
b111111111111111 &
b111111111111111 .
b1111111111111111 %
b1111111111111111 2
b10000000 +
b1000000 /
b100000000000000000000000000000000000000000000000000000000000000 *
1"
#1018750
0"
#1025000
b111001101110011 &
b111001101110011 .
b1111111101100001 %
b1111111101100001 2
b10000100 +
b1000100 /
b100010000000000000000000000000000000000000000000000000000000000 *
1"
#1031250
0"
#1037500
b110011100000110 &
b110011100000110 .
b1111110110001001 %
b1111110110001001 2
b10001000 +
b1001000 /
b100100000000000000000000000000000000000000000000000000000000000 *
1"
#1043750
0"
#1050000
b101101011010111 &
b101101011010111 .
b1111101001111100 %
b1111101001111100 2
b10001100 +
b1001100 /
b100110000000000000000000000000000000000000000000000000000000000 *
1"
#1056250
0"
#1062500
b100111100000011 &
b100111100000011 .
b1111011001000000 %
b1111011001000000 2
b10010000 +
b1010000 /
b101000000000000000000000000000000000000000000000000000000000000 *
1"
#1068750
0"
#1075000
b100001110101001 &
b100001110101001 .
b1111000011100001 %
b1111000011100001 2
b10010100 +
b1010100 /
b101010000000000000000000000000000000000000000000000000000000000 *
1"
#1081250
0"
#1087500
b11100011100010 &
b11100011100010 .
b1110101001101100 %
b1110101001101100 2
b10011000 +
b1011000 /
b101100000000000000000000000000000000000000000000000000000000000 *
1"
#1093750
0"
#1100000
b10111011001100 &
b10111011001100 .
b1110001011110001 %
b1110001011110001 2
b10011100 +
b1011100 /
b101110000000000000000000000000000000000000000000000000000000000 *
1"
#1106250
0"
#1112500
b10010101111101 &
b10010101111101 .
b1101101010000001 %
b1101101010000001 2
b10100000 +
b1100000 /
b110000000000000000000000000000000000000000000000000000000000000 *
1"
#1118750
0"
#1125000
b1110100001101 &
b1110100001101 .
b1101000100110010 %
b1101000100110010 2
b10100100 +
b1100100 /
b110010000000000000000000000000000000000000000000000000000000000 *
1"
#1131250
0"
#1137500
b1010110010010 &
b1010110010010 .
b1100011100011100 %
b1100011100011100 2
b10101000 +
b1101000 /
b110100000000000000000000000000000000000000000000000000000000000 *
1"
#1143750
0"
#1150000
b111100011101 &
b111100011101 .
b1011110001010101 %
b1011110001010101 2
b10101100 +
b1101100 /
b110110000000000000000000000000000000000000000000000000000000000 *
1"
#1156250
0"
#1162500
b100110111110 &
b100110111110 .
b1011000011111011 %
b1011000011111011 2
b10110000 +
b1110000 /
b111000000000000000000000000000000000000000000000000000000000000 *
1"
#1168750
0"
#1175000
b10110000010 &
b10110000010 .
b1010010100100111 %
b1010010100100111 2
b10110100 +
b1110100 /
b111010000000000000000000000000000000000000000000000000000000000 *
1"
#1181250
0"
#1187500
b1001110101 &
b1001110101 .
b1001100011111000 %
b1001100011111000 2
b10111000 +
b1111000 /
b111100000000000000000000000000000000000000000000000000000000000 *
1"
#1193750
0"
#1200000
b10011101 &
b10011101 .
b1000110010001011 %
b1000110010001011 2
b10111100 +
b1111100 /
b111110000000000000000000000000000000000000000000000000000000000 *
1"
#1206250
0"
#1212500
b0 &
b0 .
b111111111111111 %
b111111111111111 2
b11000000 +
b10000000 /
b1000000000000000000000000000000000000000000000000000000000000000 *
1"
#1218750
0"
#1225000
b10011101 &
b10011101 .
b111001101110011 %
b111001101110011 2
b11000100 +
b10000100 /
b1000010000000000000000000000000000000000000000000000000000000000 *
1"
#1231250
0"
#1237500
b1001110101 &
b1001110101 .
b110011100000110 %
b110011100000110 2
b11001000 +
b10001000 /
b1000100000000000000000000000000000000000000000000000000000000000 *
1"
#1243750
0"
#1250000
b10110000010 &
b10110000010 .
b101101011010111 %
b101101011010111 2
b11001100 +
b10001100 /
b1000110000000000000000000000000000000000000000000000000000000000 *
1"
#1256250
0"
#1262500
b100110111110 &
b100110111110 .
b100111100000011 %
b100111100000011 2
b11010000 +
b10010000 /
b1001000000000000000000000000000000000000000000000000000000000000 *
1"
#1268750
0"
#1275000
b111100011101 &
b111100011101 .
b100001110101001 %
b100001110101001 2
b11010100 +
b10010100 /
b1001010000000000000000000000000000000000000000000000000000000000 *
1"
#1281250
0"
#1287500
b1010110010010 &
b1010110010010 .
b11100011100010 %
b11100011100010 2
b11011000 +
b10011000 /
b1001100000000000000000000000000000000000000000000000000000000000 *
1"
#1293750
0"
#1300000
b1110100001101 &
b1110100001101 .
b10111011001100 %
b10111011001100 2
b11011100 +
b10011100 /
b1001110000000000000000000000000000000000000000000000000000000000 *
1"
#1306250
0"
#1312500
b10010101111101 &
b10010101111101 .
b10010101111101 %
b10010101111101 2
b11100000 +
b10100000 /
b1010000000000000000000000000000000000000000000000000000000000000 *
1"
#1318750
0"
#1325000
b10111011001100 &
b10111011001100 .
b1110100001101 %
b1110100001101 2
b11100100 +
b10100100 /
b1010010000000000000000000000000000000000000000000000000000000000 *
1"
#1331250
0"
#1337500
b11100011100010 &
b11100011100010 .
b1010110010010 %
b1010110010010 2
b11101000 +
b10101000 /
b1010100000000000000000000000000000000000000000000000000000000000 *
1"
#1343750
0"
#1350000
b100001110101001 &
b100001110101001 .
b111100011101 %
b111100011101 2
b11101100 +
b10101100 /
b1010110000000000000000000000000000000000000000000000000000000000 *
1"
#1356250
0"
#1362500
b100111100000011 &
b100111100000011 .
b100110111110 %
b100110111110 2
b11110000 +
b10110000 /
b1011000000000000000000000000000000000000000000000000000000000000 *
1"
#1368750
0"
#1375000
b101101011010111 &
b101101011010111 .
b10110000010 %
b10110000010 2
b11110100 +
b10110100 /
b1011010000000000000000000000000000000000000000000000000000000000 *
1"
#1381250
0"
#1387500
b110011100000110 &
b110011100000110 .
b1001110101 %
b1001110101 2
b11111000 +
b10111000 /
b1011100000000000000000000000000000000000000000000000000000000000 *
1"
#1393750
0"
#1400000
b111001101110011 &
b111001101110011 .
b10011101 %
b10011101 2
b11111100 +
b10111100 /
b1011110000000000000000000000000000000000000000000000000000000000 *
1"
#1406250
0"
#1412500
b111111111111111 &
b111111111111111 .
b0 %
b0 2
b0 +
b11000000 /
b1100000000000000000000000000000000000000000000000000000000000000 *
1"
#1418750
0"
#1425000
b1000110010001011 &
b1000110010001011 .
b10011101 %
b10011101 2
b100 +
b11000100 /
b1100010000000000000000000000000000000000000000000000000000000000 *
1"
#1431250
0"
#1437500
b1001100011111000 &
b1001100011111000 .
b1001110101 %
b1001110101 2
b1000 +
b11001000 /
b1100100000000000000000000000000000000000000000000000000000000000 *
1"
#1443750
0"
#1450000
b1010010100100111 &
b1010010100100111 .
b10110000010 %
b10110000010 2
b1100 +
b11001100 /
b1100110000000000000000000000000000000000000000000000000000000000 *
1"
#1456250
0"
#1462500
b1011000011111011 &
b1011000011111011 .
b100110111110 %
b100110111110 2
b10000 +
b11010000 /
b1101000000000000000000000000000000000000000000000000000000000000 *
1"
#1468750
0"
#1475000
b1011110001010101 &
b1011110001010101 .
b111100011101 %
b111100011101 2
b10100 +
b11010100 /
b1101010000000000000000000000000000000000000000000000000000000000 *
1"
#1481250
0"
#1487500
b1100011100011100 &
b1100011100011100 .
b1010110010010 %
b1010110010010 2
b11000 +
b11011000 /
b1101100000000000000000000000000000000000000000000000000000000000 *
1"
#1493750
0"
#1500000
b1101000100110010 &
b1101000100110010 .
b1110100001101 %
b1110100001101 2
b11100 +
b11011100 /
b1101110000000000000000000000000000000000000000000000000000000000 *
1"
#1506250
0"
#1512500
b1101101010000001 &
b1101101010000001 .
b10010101111101 %
b10010101111101 2
b100000 +
b11100000 /
b1110000000000000000000000000000000000000000000000000000000000000 *
1"
#1518750
0"
#1525000
b1110001011110001 &
b1110001011110001 .
b10111011001100 %
b10111011001100 2
b100100 +
b11100100 /
b1110010000000000000000000000000000000000000000000000000000000000 *
1"
#1531250
0"
#1537500
b1110101001101100 &
b1110101001101100 .
b11100011100010 %
b11100011100010 2
b101000 +
b11101000 /
b1110100000000000000000000000000000000000000000000000000000000000 *
1"
#1543750
0"
#1550000
b1111000011100001 &
b1111000011100001 .
b100001110101001 %
b100001110101001 2
b101100 +
b11101100 /
b1110110000000000000000000000000000000000000000000000000000000000 *
1"
#1556250
0"
#1562500
b1111011001000000 &
b1111011001000000 .
b100111100000011 %
b100111100000011 2
b110000 +
b11110000 /
b1111000000000000000000000000000000000000000000000000000000000000 *
1"
#1568750
0"
#1575000
b1111101001111100 &
b1111101001111100 .
b101101011010111 %
b101101011010111 2
b110100 +
b11110100 /
b1111010000000000000000000000000000000000000000000000000000000000 *
1"
#1581250
0"
#1587500
b1111110110001001 &
b1111110110001001 .
b110011100000110 %
b110011100000110 2
b111000 +
b11111000 /
b1111100000000000000000000000000000000000000000000000000000000000 *
1"
#1593750
0"
#1600000
b1111111101100001 &
b1111111101100001 .
b111001101110011 %
b111001101110011 2
b111100 +
b11111100 /
b1111110000000000000000000000000000000000000000000000000000000000 *
1"
#1606250
0"
#1612500
b1111111111111111 &
b1111111111111111 .
b111111111111111 %
b111111111111111 2
b1000000 +
b0 /
b0 *
1"
#1618750
0"
#1625000
b1111111101100001 &
b1111111101100001 .
b1000110010001011 %
b1000110010001011 2
b1000100 +
b100 /
b10000000000000000000000000000000000000000000000000000000000 *
1"
#1631250
0"
#1637500
b1111110110001001 &
b1111110110001001 .
b1001100011111000 %
b1001100011111000 2
b1001000 +
b1000 /
b100000000000000000000000000000000000000000000000000000000000 *
1"
#1643750
0"
#1650000
b1111101001111100 &
b1111101001111100 .
b1010010100100111 %
b1010010100100111 2
b1001100 +
b1100 /
b110000000000000000000000000000000000000000000000000000000000 *
1"
#1656250
0"
#1662500
b1111011001000000 &
b1111011001000000 .
b1011000011111011 %
b1011000011111011 2
b1010000 +
b10000 /
b1000000000000000000000000000000000000000000000000000000000000 *
1"
#1668750
0"
#1675000
b1111000011100001 &
b1111000011100001 .
b1011110001010101 %
b1011110001010101 2
b1010100 +
b10100 /
b1010000000000000000000000000000000000000000000000000000000000 *
1"
#1681250
0"
#1687500
b1110101001101100 &
b1110101001101100 .
b1100011100011100 %
b1100011100011100 2
b1011000 +
b11000 /
b1100000000000000000000000000000000000000000000000000000000000 *
1"
#1693750
0"
#1700000
b1110001011110001 &
b1110001011110001 .
b1101000100110010 %
b1101000100110010 2
b1011100 +
b11100 /
b1110000000000000000000000000000000000000000000000000000000000 *
1"
#1706250
0"
#1712500
b1101101010000001 &
b1101101010000001 .
b1101101010000001 %
b1101101010000001 2
b1100000 +
b100000 /
b10000000000000000000000000000000000000000000000000000000000000 *
1"
#1718750
0"
#1725000
b1101000100110010 &
b1101000100110010 .
b1110001011110001 %
b1110001011110001 2
b1100100 +
b100100 /
b10010000000000000000000000000000000000000000000000000000000000 *
1"
#1731250
0"
#1737500
b1100011100011100 &
b1100011100011100 .
b1110101001101100 %
b1110101001101100 2
b1101000 +
b101000 /
b10100000000000000000000000000000000000000000000000000000000000 *
1"
#1743750
0"
#1750000
b1011110001010101 &
b1011110001010101 .
b1111000011100001 %
b1111000011100001 2
b1101100 +
b101100 /
b10110000000000000000000000000000000000000000000000000000000000 *
1"
#1756250
0"
#1762500
b1011000011111011 &
b1011000011111011 .
b1111011001000000 %
b1111011001000000 2
b1110000 +
b110000 /
b11000000000000000000000000000000000000000000000000000000000000 *
1"
#1768750
0"
#1775000
b1010010100100111 &
b1010010100100111 .
b1111101001111100 %
b1111101001111100 2
b1110100 +
b110100 /
b11010000000000000000000000000000000000000000000000000000000000 *
1"
#1781250
0"
#1787500
b1001100011111000 &
b1001100011111000 .
b1111110110001001 %
b1111110110001001 2
b1111000 +
b111000 /
b11100000000000000000000000000000000000000000000000000000000000 *
1"
#1793750
0"
#1800000
b1000110010001011 &
b1000110010001011 .
b1111111101100001 %
b1111111101100001 2
b1111100 +
b111100 /
b11110000000000000000000000000000000000000000000000000000000000 *
1"
#1806250
0"
#1812500
b111111111111111 &
b111111111111111 .
b1111111111111111 %
b1111111111111111 2
b10000000 +
b1000000 /
b100000000000000000000000000000000000000000000000000000000000000 *
1"
#1818750
0"
#1825000
b111001101110011 &
b111001101110011 .
b1111111101100001 %
b1111111101100001 2
b10000100 +
b1000100 /
b100010000000000000000000000000000000000000000000000000000000000 *
1"
#1831250
0"
#1837500
b110011100000110 &
b110011100000110 .
b1111110110001001 %
b1111110110001001 2
b10001000 +
b1001000 /
b100100000000000000000000000000000000000000000000000000000000000 *
1"
#1843750
0"
#1850000
b101101011010111 &
b101101011010111 .
b1111101001111100 %
b1111101001111100 2
b10001100 +
b1001100 /
b100110000000000000000000000000000000000000000000000000000000000 *
1"
#1856250
0"
#1862500
b100111100000011 &
b100111100000011 .
b1111011001000000 %
b1111011001000000 2
b10010000 +
b1010000 /
b101000000000000000000000000000000000000000000000000000000000000 *
1"
#1868750
0"
#1875000
b100001110101001 &
b100001110101001 .
b1111000011100001 %
b1111000011100001 2
b10010100 +
b1010100 /
b101010000000000000000000000000000000000000000000000000000000000 *
1"
#1881250
0"
#1887500
b11100011100010 &
b11100011100010 .
b1110101001101100 %
b1110101001101100 2
b10011000 +
b1011000 /
b101100000000000000000000000000000000000000000000000000000000000 *
1"
#1893750
0"
#1900000
b10111011001100 &
b10111011001100 .
b1110001011110001 %
b1110001011110001 2
b10011100 +
b1011100 /
b101110000000000000000000000000000000000000000000000000000000000 *
1"
#1906250
0"
#1912500
b10010101111101 &
b10010101111101 .
b1101101010000001 %
b1101101010000001 2
b10100000 +
b1100000 /
b110000000000000000000000000000000000000000000000000000000000000 *
1"
#1918750
0"
#1925000
b1110100001101 &
b1110100001101 .
b1101000100110010 %
b1101000100110010 2
b10100100 +
b1100100 /
b110010000000000000000000000000000000000000000000000000000000000 *
1"
#1931250
0"
#1937500
b1010110010010 &
b1010110010010 .
b1100011100011100 %
b1100011100011100 2
b10101000 +
b1101000 /
b110100000000000000000000000000000000000000000000000000000000000 *
1"
#1943750
0"
#1950000
b111100011101 &
b111100011101 .
b1011110001010101 %
b1011110001010101 2
b10101100 +
b1101100 /
b110110000000000000000000000000000000000000000000000000000000000 *
1"
#1956250
0"
#1962500
b100110111110 &
b100110111110 .
b1011000011111011 %
b1011000011111011 2
b10110000 +
b1110000 /
b111000000000000000000000000000000000000000000000000000000000000 *
1"
#1968750
0"
#1975000
b10110000010 &
b10110000010 .
b1010010100100111 %
b1010010100100111 2
b10110100 +
b1110100 /
b111010000000000000000000000000000000000000000000000000000000000 *
1"
#1981250
0"
