1.Blinky--ILA-Test/app/vcd_files/ila_blink_24-07-11_21-36-24_0.vcd
$date today $end
$timescale 1 ps $end
$scope module ILA_Signals $end
$var reg 1 ! clk $end
$var integer 12 " smp_cnt_ILA $end
$upscope $end
$enddefinitions $end
#0
$dumpvars
1!
b0 "
$end
#250000
0!
b1 "
#500000
1!
b10 "
#750000
0!
b11 "
#1000000
1!
b100 "
#1250000
0!
b101 "
#1500000
1!
b110 "
#1750000
0!
b111 "
#2000000
1!
b1000 "
#2250000
0!
b1001 "
#2500000
1!
b1010 "
#2750000
0!
b1011 "
#3000000
1!
b1100 "
#3250000
0!
b1101 "
#3500000
1!
b1110 "
#3750000
0!
b1111 "
#4000000
1!
b10000 "
#4250000
0!
b10001 "
#4500000
1!
b10010 "
#4750000
0!
b10011 "
#5000000
1!
b10100 "
#5250000
0!
b10101 "
#5500000
1!
b10110 "
#5750000
0!
b10111 "
#6000000
1!
b11000 "
#6250000
0!
b11001 "
#6500000
1!
b11010 "
#6750000
0!
b11011 "
#7000000
1!
b11100 "
#7250000
0!
b11101 "
#7500000
1!
b11110 "
#7750000
0!
b11111 "
#8000000
1!
b100000 "
#8250000
0!
b100001 "
#8500000
1!
b100010 "
#8750000
0!
b100011 "
#9000000
1!
b100100 "
#9250000
0!
b100101 "
#9500000
1!
b100110 "
#9750000
0!
b100111 "
#10000000
1!
b101000 "
#10250000
0!
b101001 "
#10500000
1!
b101010 "
#10750000
0!
b101011 "
#11000000
1!
b101100 "
#11250000
0!
b101101 "
#11500000
1!
b101110 "
#11750000
0!
b101111 "
#12000000
1!
b110000 "
#12250000
0!
b110001 "
#12500000
1!
b110010 "
#12750000
0!
b110011 "
#13000000
1!
b110100 "
#13250000
0!
b110101 "
#13500000
1!
b110110 "
#13750000
0!
b110111 "
#14000000
1!
b111000 "
#14250000
0!
b111001 "
#14500000
1!
b111010 "
#14750000
0!
b111011 "
#15000000
1!
b111100 "
#15250000
0!
b111101 "
#15500000
1!
b111110 "
#15750000
0!
b111111 "
#16000000
1!
b1000000 "
#16250000
0!
b1000001 "
#16500000
1!
b1000010 "
#16750000
0!
b1000011 "
#17000000
1!
b1000100 "
#17250000
0!
b1000101 "
#17500000
1!
b1000110 "
#17750000
0!
b1000111 "
#18000000
1!
b1001000 "
#18250000
0!
b1001001 "
#18500000
1!
b1001010 "
#18750000
0!
b1001011 "
#19000000
1!
b1001100 "
#19250000
0!
b1001101 "
#19500000
1!
b1001110 "
#19750000
0!
b1001111 "
#20000000
1!
b1010000 "
#20250000
0!
b1010001 "
#20500000
1!
b1010010 "
#20750000
0!
b1010011 "
#21000000
1!
b1010100 "
#21250000
0!
b1010101 "
#21500000
1!
b1010110 "
#21750000
0!
b1010111 "
#22000000
1!
b1011000 "
#22250000
0!
b1011001 "
#22500000
1!
b1011010 "
#22750000
0!
b1011011 "
#23000000
1!
b1011100 "
#23250000
0!
b1011101 "
#23500000
1!
b1011110 "
#23750000
0!
b1011111 "
#24000000
1!
b1100000 "
#24250000
0!
b1100001 "
#24500000
1!
b1100010 "
#24750000
0!
b1100011 "
#25000000
1!
b1100100 "
#25250000
0!
b1100101 "
#25500000
1!
b1100110 "
#25750000
0!
b1100111 "
#26000000
1!
b1101000 "
#26250000
0!
b1101001 "
#26500000
1!
b1101010 "
#26750000
0!
b1101011 "
#27000000
1!
b1101100 "
#27250000
0!
b1101101 "
#27500000
1!
b1101110 "
#27750000
0!
b1101111 "
#28000000
1!
b1110000 "
#28250000
0!
b1110001 "
#28500000
1!
b1110010 "
#28750000
b1110011 "
#29000000
0!
b1110100 "
#29250000
1!
b1110101 "
#29500000
0!
b1110110 "
#29750000
1!
b1110111 "
#30000000
0!
b1111000 "
#30250000
b1111001 "
#30500000
1!
b1111010 "
#30750000
0!
b1111011 "
#31000000
1!
b1111100 "
#31250000
0!
b1111101 "
#31500000
1!
b1111110 "
#31750000
0!
b1111111 "
#32000000
1!
b10000000 "
#32250000
0!
b10000001 "
#32500000
1!
b10000010 "
#32750000
0!
b10000011 "
#33000000
1!
b10000100 "
#33250000
0!
b10000101 "
#33500000
1!
b10000110 "
#33750000
b10000111 "
#34000000
b10001000 "
#34250000
0!
b10001001 "
#34500000
1!
b10001010 "
#34750000
0!
b10001011 "
#35000000
1!
b10001100 "
#35250000
0!
b10001101 "
#35500000
1!
b10001110 "
#35750000
0!
b10001111 "
#36000000
1!
b10010000 "
#36250000
0!
b10010001 "
#36500000
1!
b10010010 "
#36750000
0!
b10010011 "
#37000000
1!
b10010100 "
#37250000
0!
b10010101 "
#37500000
1!
b10010110 "
#37750000
0!
b10010111 "
#38000000
1!
b10011000 "
#38250000
0!
b10011001 "
#38500000
1!
b10011010 "
#38750000
0!
b10011011 "
#39000000
1!
b10011100 "
#39250000
0!
b10011101 "
#39500000
1!
b10011110 "
#39750000
0!
b10011111 "
#40000000
1!
b10100000 "
#40250000
0!
b10100001 "
#40500000
1!
b10100010 "
#40750000
0!
b10100011 "
#41000000
1!
b10100100 "
#41250000
0!
b10100101 "
#41500000
1!
b10100110 "
#41750000
0!
b10100111 "
#42000000
1!
b10101000 "
#42250000
0!
b10101001 "
#42500000
1!
b10101010 "
#42750000
0!
b10101011 "
#43000000
1!
b10101100 "
#43250000
0!
b10101101 "
#43500000
1!
b10101110 "
#43750000
0!
b10101111 "
#44000000
1!
b10110000 "
#44250000
0!
b10110001 "
#44500000
1!
b10110010 "
#44750000
0!
b10110011 "
#45000000
1!
b10110100 "
#45250000
0!
b10110101 "
#45500000
1!
b10110110 "
#45750000
0!
b10110111 "
#46000000
1!
b10111000 "
#46250000
0!
b10111001 "
#46500000
1!
b10111010 "
#46750000
0!
b10111011 "
#47000000
1!
b10111100 "
#47250000
0!
b10111101 "
#47500000
1!
b10111110 "
#47750000
0!
b10111111 "
#48000000
1!
b11000000 "
#48250000
0!
b11000001 "
#48500000
1!
b11000010 "
#48750000
0!
b11000011 "
#49000000
1!
b11000100 "
#49250000
0!
b11000101 "
#49500000
1!
b11000110 "
#49750000
0!
b11000111 "
#50000000
1!
b11001000 "
#50250000
0!
b11001001 "
#50500000
1!
b11001010 "
#50750000
0!
b11001011 "
#51000000
1!
b11001100 "
#51250000
0!
b11001101 "
#51500000
1!
b11001110 "
#51750000
0!
b11001111 "
#52000000
1!
b11010000 "
#52250000
0!
b11010001 "
#52500000
1!
b11010010 "
#52750000
0!
b11010011 "
#53000000
1!
b11010100 "
#53250000
0!
b11010101 "
#53500000
1!
b11010110 "
#53750000
0!
b11010111 "
#54000000
1!
b11011000 "
#54250000
0!
b11011001 "
#54500000
1!
b11011010 "
#54750000
0!
b11011011 "
#55000000
1!
b11011100 "
#55250000
0!
b11011101 "
#55500000
1!
b11011110 "
#55750000
0!
b11011111 "
#56000000
1!
b11100000 "
#56250000
0!
b11100001 "
#56500000
1!
b11100010 "
#56750000
0!
b11100011 "
#57000000
1!
b11100100 "
#57250000
0!
b11100101 "
#57500000
1!
b11100110 "
#57750000
0!
b11100111 "
#58000000
1!
b11101000 "
#58250000
0!
b11101001 "
#58500000
1!
b11101010 "
#58750000
b11101011 "
#59000000
0!
b11101100 "
#59250000
1!
b11101101 "
#59500000
0!
b11101110 "
#59750000
1!
b11101111 "
#60000000
b11110000 "
#60250000
0!
b11110001 "
#60500000
1!
b11110010 "
#60750000
0!
b11110011 "
#61000000
1!
b11110100 "
#61250000
0!
b11110101 "
#61500000
1!
b11110110 "
#61750000
0!
b11110111 "
#62000000
1!
b11111000 "
#62250000
0!
b11111001 "
#62500000
1!
b11111010 "
#62750000
0!
b11111011 "
#63000000
1!
b11111100 "
#63250000
0!
b11111101 "
#63500000
1!
b11111110 "
#63750000
0!
b11111111 "
#64000000
1!
b100000000 "
#64250000
0!
b100000001 "
#64500000
1!
b100000010 "
#64750000
0!
b100000011 "
#65000000
1!
b100000100 "
#65250000
0!
b100000101 "
#65500000
1!
b100000110 "
#65750000
0!
b100000111 "
#66000000
1!
b100001000 "
#66250000
0!
b100001001 "
#66500000
1!
b100001010 "
#66750000
0!
b100001011 "
#67000000
1!
b100001100 "
#67250000
0!
b100001101 "
#67500000
1!
b100001110 "
#67750000
0!
b100001111 "
#68000000
1!
b100010000 "
#68250000
0!
b100010001 "
#68500000
1!
b100010010 "
#68750000
0!
b100010011 "
#69000000
1!
b100010100 "
#69250000
0!
b100010101 "
#69500000
1!
b100010110 "
#69750000
0!
b100010111 "
#70000000
1!
b100011000 "
#70250000
0!
b100011001 "
#70500000
1!
b100011010 "
#70750000
0!
b100011011 "
#71000000
1!
b100011100 "
#71250000
0!
b100011101 "
#71500000
1!
b100011110 "
#71750000
0!
b100011111 "
#72000000
1!
b100100000 "
#72250000
0!
b100100001 "
#72500000
1!
b100100010 "
#72750000
0!
b100100011 "
#73000000
1!
b100100100 "
#73250000
0!
b100100101 "
#73500000
1!
b100100110 "
#73750000
0!
b100100111 "
#74000000
1!
b100101000 "
#74250000
0!
b100101001 "
#74500000
1!
b100101010 "
#74750000
0!
b100101011 "
#75000000
1!
b100101100 "
#75250000
0!
b100101101 "
#75500000
1!
b100101110 "
#75750000
0!
b100101111 "
#76000000
1!
b100110000 "
#76250000
0!
b100110001 "
#76500000
1!
b100110010 "
#76750000
0!
b100110011 "
#77000000
1!
b100110100 "
#77250000
0!
b100110101 "
#77500000
1!
b100110110 "
#77750000
0!
b100110111 "
#78000000
1!
b100111000 "
#78250000
0!
b100111001 "
#78500000
1!
b100111010 "
#78750000
0!
b100111011 "
#79000000
1!
b100111100 "
#79250000
0!
b100111101 "
#79500000
1!
b100111110 "
#79750000
0!
b100111111 "
#80000000
1!
b101000000 "
#80250000
0!
b101000001 "
#80500000
1!
b101000010 "
#80750000
0!
b101000011 "
#81000000
1!
b101000100 "
#81250000
0!
b101000101 "
#81500000
1!
b101000110 "
#81750000
0!
b101000111 "
#82000000
1!
b101001000 "
#82250000
0!
b101001001 "
#82500000
1!
b101001010 "
#82750000
0!
b101001011 "
#83000000
1!
b101001100 "
#83250000
0!
b101001101 "
#83500000
1!
b101001110 "
#83750000
0!
b101001111 "
#84000000
1!
b101010000 "
#84250000
0!
b101010001 "
#84500000
1!
b101010010 "
#84750000
0!
b101010011 "
#85000000
1!
b101010100 "
#85250000
0!
b101010101 "
#85500000
1!
b101010110 "
#85750000
0!
b101010111 "
#86000000
1!
b101011000 "
#86250000
0!
b101011001 "
#86500000
1!
b101011010 "
#86750000
0!
b101011011 "
#87000000
1!
b101011100 "
#87250000
0!
b101011101 "
#87500000
1!
b101011110 "
#87750000
0!
b101011111 "
#88000000
1!
b101100000 "
#88250000
0!
b101100001 "
#88500000
1!
b101100010 "
#88750000
0!
b101100011 "
#89000000
1!
b101100100 "
#89250000
0!
b101100101 "
#89500000
1!
b101100110 "
#89750000
0!
b101100111 "
#90000000
1!
b101101000 "
#90250000
0!
b101101001 "
#90500000
1!
b101101010 "
#90750000
0!
b101101011 "
#91000000
1!
b101101100 "
#91250000
0!
b101101101 "
#91500000
1!
b101101110 "
#91750000
0!
b101101111 "
#92000000
1!
b101110000 "
#92250000
0!
b101110001 "
#92500000
1!
b101110010 "
#92750000
0!
b101110011 "
#93000000
1!
b101110100 "
#93250000
0!
b101110101 "
#93500000
1!
b101110110 "
#93750000
0!
b101110111 "
#94000000
1!
b101111000 "
#94250000
0!
b101111001 "
#94500000
1!
b101111010 "
#94750000
0!
b101111011 "
#95000000
1!
b101111100 "
#95250000
0!
b101111101 "
#95500000
1!
b101111110 "
#95750000
0!
b101111111 "
#96000000
1!
b110000000 "
#96250000
0!
b110000001 "
#96500000
1!
b110000010 "
#96750000
0!
b110000011 "
#97000000
1!
b110000100 "
#97250000
0!
b110000101 "
#97500000
1!
b110000110 "
#97750000
0!
b110000111 "
#98000000
1!
b110001000 "
#98250000
0!
b110001001 "
#98500000
1!
b110001010 "
#98750000
0!
b110001011 "
#99000000
1!
b110001100 "
#99250000
0!
b110001101 "
#99500000
1!
b110001110 "
#99750000
0!
b110001111 "
#100000000
1!
b110010000 "
#100250000
0!
b110010001 "
#100500000
1!
b110010010 "
#100750000
0!
b110010011 "
#101000000
1!
b110010100 "
#101250000
0!
b110010101 "
#101500000
1!
b110010110 "
#101750000
0!
b110010111 "
#102000000
1!
b110011000 "
#102250000
0!
b110011001 "
#102500000
1!
b110011010 "
#102750000
0!
b110011011 "
#103000000
1!
b110011100 "
#103250000
0!
b110011101 "
#103500000
1!
b110011110 "
#103750000
0!
b110011111 "
#104000000
1!
b110100000 "
#104250000
0!
b110100001 "
#104500000
1!
b110100010 "
#104750000
0!
b110100011 "
#105000000
1!
b110100100 "
#105250000
0!
b110100101 "
#105500000
1!
b110100110 "
#105750000
0!
b110100111 "
#106000000
1!
b110101000 "
#106250000
0!
b110101001 "
#106500000
1!
b110101010 "
#106750000
0!
b110101011 "
#107000000
1!
b110101100 "
#107250000
0!
b110101101 "
#107500000
1!
b110101110 "
#107750000
0!
b110101111 "
#108000000
1!
b110110000 "
#108250000
0!
b110110001 "
#108500000
1!
b110110010 "
#108750000
0!
b110110011 "
#109000000
1!
b110110100 "
#109250000
0!
b110110101 "
#109500000
1!
b110110110 "
#109750000
0!
b110110111 "
#110000000
1!
b110111000 "
#110250000
0!
b110111001 "
#110500000
1!
b110111010 "
#110750000
0!
b110111011 "
#111000000
1!
b110111100 "
#111250000
0!
b110111101 "
#111500000
1!
b110111110 "
#111750000
0!
b110111111 "
#112000000
1!
b111000000 "
#112250000
0!
b111000001 "
#112500000
1!
b111000010 "
#112750000
0!
b111000011 "
#113000000
1!
b111000100 "
#113250000
0!
b111000101 "
#113500000
1!
b111000110 "
#113750000
0!
b111000111 "
#114000000
1!
b111001000 "
#114250000
0!
b111001001 "
#114500000
1!
b111001010 "
#114750000
0!
b111001011 "
#115000000
1!
b111001100 "
#115250000
0!
b111001101 "
#115500000
1!
b111001110 "
#115750000
0!
b111001111 "
#116000000
1!
b111010000 "
#116250000
0!
b111010001 "
#116500000
1!
b111010010 "
#116750000
0!
b111010011 "
#117000000
1!
b111010100 "
#117250000
0!
b111010101 "
#117500000
1!
b111010110 "
#117750000
0!
b111010111 "
#118000000
1!
b111011000 "
#118250000
0!
b111011001 "
#118500000
1!
b111011010 "
#118750000
0!
b111011011 "
#119000000
1!
b111011100 "
#119250000
0!
b111011101 "
#119500000
1!
b111011110 "
#119750000
0!
b111011111 "
#120000000
1!
b111100000 "
#120250000
0!
b111100001 "
#120500000
1!
b111100010 "
#120750000
0!
b111100011 "
#121000000
1!
b111100100 "
#121250000
0!
b111100101 "
#121500000
1!
b111100110 "
#121750000
0!
b111100111 "
#122000000
1!
b111101000 "
#122250000
0!
b111101001 "
#122500000
1!
b111101010 "
#122750000
0!
b111101011 "
#123000000
1!
b111101100 "
#123250000
0!
b111101101 "
#123500000
1!
b111101110 "
#123750000
0!
b111101111 "
#124000000
1!
b111110000 "
#124250000
0!
b111110001 "
#124500000
1!
b111110010 "
#124750000
0!
b111110011 "
#125000000
1!
b111110100 "
#125250000
0!
b111110101 "
#125500000
1!
b111110110 "
#125750000
0!
b111110111 "
#126000000
1!
b111111000 "
#126250000
0!
b111111001 "
#126500000
1!
b111111010 "
#126750000
0!
b111111011 "
#127000000
1!
b111111100 "
#127250000
0!
b111111101 "
#127500000
1!
b111111110 "
#127750000
0!
b111111111 "
#128000000
1!
b1000000000 "
#128250000
0!
b1000000001 "
#128500000
1!
b1000000010 "
#128750000
0!
b1000000011 "
#129000000
1!
b1000000100 "
#129250000
0!
b1000000101 "
#129500000
1!
b1000000110 "
#129750000
0!
b1000000111 "
#130000000
1!
b1000001000 "
#130250000
0!
b1000001001 "
#130500000
1!
b1000001010 "
#130750000
0!
b1000001011 "
#131000000
1!
b1000001100 "
#131250000
0!
b1000001101 "
#131500000
1!
b1000001110 "
#131750000
0!
b1000001111 "
#132000000
1!
b1000010000 "
#132250000
0!
b1000010001 "
#132500000
1!
b1000010010 "
#132750000
0!
b1000010011 "
#133000000
1!
b1000010100 "
#133250000
0!
b1000010101 "
#133500000
1!
b1000010110 "
#133750000
0!
b1000010111 "
#134000000
1!
b1000011000 "
#134250000
0!
b1000011001 "
#134500000
1!
b1000011010 "
#134750000
0!
b1000011011 "
#135000000
1!
b1000011100 "
#135250000
0!
b1000011101 "
#135500000
1!
b1000011110 "
#135750000
0!
b1000011111 "
#136000000
1!
b1000100000 "
#136250000
0!
b1000100001 "
#136500000
1!
b1000100010 "
#136750000
0!
b1000100011 "
#137000000
1!
b1000100100 "
#137250000
0!
b1000100101 "
#137500000
1!
b1000100110 "
#137750000
0!
b1000100111 "
#138000000
1!
b1000101000 "
#138250000
0!
b1000101001 "
#138500000
1!
b1000101010 "
#138750000
0!
b1000101011 "
#139000000
1!
b1000101100 "
#139250000
0!
b1000101101 "
#139500000
1!
b1000101110 "
#139750000
0!
b1000101111 "
#140000000
1!
b1000110000 "
#140250000
0!
b1000110001 "
#140500000
1!
b1000110010 "
#140750000
0!
b1000110011 "
#141000000
1!
b1000110100 "
#141250000
0!
b1000110101 "
#141500000
1!
b1000110110 "
#141750000
0!
b1000110111 "
#142000000
1!
b1000111000 "
#142250000
0!
b1000111001 "
#142500000
1!
b1000111010 "
#142750000
0!
b1000111011 "
#143000000
1!
b1000111100 "
#143250000
0!
b1000111101 "
#143500000
1!
b1000111110 "
#143750000
0!
b1000111111 "
#144000000
1!
b1001000000 "
#144250000
0!
b1001000001 "
#144500000
1!
b1001000010 "
#144750000
0!
b1001000011 "
#145000000
1!
b1001000100 "
#145250000
0!
b1001000101 "
#145500000
1!
b1001000110 "
#145750000
0!
b1001000111 "
#146000000
1!
b1001001000 "
#146250000
0!
b1001001001 "
#146500000
1!
b1001001010 "
#146750000
0!
b1001001011 "
#147000000
1!
b1001001100 "
#147250000
0!
b1001001101 "
#147500000
1!
b1001001110 "
#147750000
0!
b1001001111 "
#148000000
1!
b1001010000 "
#148250000
0!
b1001010001 "
#148500000
1!
b1001010010 "
#148750000
0!
b1001010011 "
#149000000
1!
b1001010100 "
#149250000
0!
b1001010101 "
#149500000
1!
b1001010110 "
#149750000
0!
b1001010111 "
#150000000
1!
b1001011000 "
#150250000
0!
b1001011001 "
#150500000
1!
b1001011010 "
#150750000
0!
b1001011011 "
#151000000
1!
b1001011100 "
#151250000
0!
b1001011101 "
#151500000
1!
b1001011110 "
#151750000
0!
b1001011111 "
#152000000
1!
b1001100000 "
#152250000
0!
b1001100001 "
#152500000
1!
b1001100010 "
#152750000
0!
b1001100011 "
#153000000
1!
b1001100100 "
#153250000
0!
b1001100101 "
#153500000
1!
b1001100110 "
#153750000
0!
b1001100111 "
#154000000
1!
b1001101000 "
#154250000
0!
b1001101001 "
#154500000
1!
b1001101010 "
#154750000
0!
b1001101011 "
#155000000
1!
b1001101100 "
#155250000
0!
b1001101101 "
#155500000
1!
b1001101110 "
#155750000
0!
b1001101111 "
#156000000
1!
b1001110000 "
#156250000
0!
b1001110001 "
#156500000
1!
b1001110010 "
#156750000
0!
b1001110011 "
#157000000
1!
b1001110100 "
#157250000
0!
b1001110101 "
#157500000
1!
b1001110110 "
#157750000
0!
b1001110111 "
#158000000
1!
b1001111000 "
#158250000
0!
b1001111001 "
#158500000
1!
b1001111010 "
#158750000
0!
b1001111011 "
#159000000
1!
b1001111100 "
#159250000
0!
b1001111101 "
#159500000
1!
b1001111110 "
#159750000
0!
b1001111111 "
#160000000
1!
b1010000000 "
#160250000
0!
b1010000001 "
#160500000
1!
b1010000010 "
#160750000
0!
b1010000011 "
#161000000
1!
b1010000100 "
#161250000
0!
b1010000101 "
#161500000
1!
b1010000110 "
#161750000
0!
b1010000111 "
#162000000
1!
b1010001000 "
#162250000
0!
b1010001001 "
#162500000
1!
b1010001010 "
#162750000
0!
b1010001011 "
#163000000
1!
b1010001100 "
#163250000
0!
b1010001101 "
#163500000
1!
b1010001110 "
#163750000
0!
b1010001111 "
#164000000
1!
b1010010000 "
#164250000
0!
b1010010001 "
#164500000
1!
b1010010010 "
#164750000
0!
b1010010011 "
#165000000
1!
b1010010100 "
#165250000
0!
b1010010101 "
#165500000
1!
b1010010110 "
#165750000
0!
b1010010111 "
#166000000
1!
b1010011000 "
#166250000
0!
b1010011001 "
#166500000
1!
b1010011010 "
#166750000
0!
b1010011011 "
#167000000
1!
b1010011100 "
#167250000
0!
b1010011101 "
#167500000
1!
b1010011110 "
#167750000
0!
b1010011111 "
#168000000
1!
b1010100000 "
#168250000
0!
b1010100001 "
#168500000
1!
b1010100010 "
#168750000
0!
b1010100011 "
#169000000
1!
b1010100100 "
#169250000
0!
b1010100101 "
#169500000
1!
b1010100110 "
#169750000
0!
b1010100111 "
#170000000
1!
b1010101000 "
#170250000
0!
b1010101001 "
#170500000
1!
b1010101010 "
#170750000
0!
b1010101011 "
#171000000
1!
b1010101100 "
#171250000
0!
b1010101101 "
#171500000
1!
b1010101110 "
#171750000
0!
b1010101111 "
#172000000
1!
b1010110000 "
#172250000
0!
b1010110001 "
#172500000
1!
b1010110010 "
#172750000
0!
b1010110011 "
#173000000
1!
b1010110100 "
#173250000
0!
b1010110101 "
#173500000
1!
b1010110110 "
#173750000
0!
b1010110111 "
#174000000
1!
b1010111000 "
#174250000
0!
b1010111001 "
#174500000
1!
b1010111010 "
#174750000
0!
b1010111011 "
#175000000
1!
b1010111100 "
#175250000
0!
b1010111101 "
#175500000
1!
b1010111110 "
#175750000
0!
b1010111111 "
#176000000
1!
b1011000000 "
#176250000
0!
b1011000001 "
#176500000
1!
b1011000010 "
#176750000
0!
b1011000011 "
#177000000
1!
b1011000100 "
#177250000
0!
b1011000101 "
#177500000
1!
b1011000110 "
#177750000
0!
b1011000111 "
#178000000
1!
b1011001000 "
#178250000
0!
b1011001001 "
#178500000
1!
b1011001010 "
#178750000
0!
b1011001011 "
#179000000
1!
b1011001100 "
#179250000
0!
b1011001101 "
#179500000
1!
b1011001110 "
#179750000
0!
b1011001111 "
#180000000
1!
b1011010000 "
#180250000
0!
b1011010001 "
#180500000
1!
b1011010010 "
#180750000
0!
b1011010011 "
#181000000
1!
b1011010100 "
#181250000
0!
b1011010101 "
#181500000
1!
b1011010110 "
#181750000
0!
b1011010111 "
#182000000
1!
b1011011000 "
#182250000
0!
b1011011001 "
#182500000
1!
b1011011010 "
#182750000
0!
b1011011011 "
#183000000
1!
b1011011100 "
#183250000
0!
b1011011101 "
#183500000
1!
b1011011110 "
#183750000
0!
b1011011111 "
#184000000
1!
b1011100000 "
#184250000
0!
b1011100001 "
#184500000
1!
b1011100010 "
#184750000
0!
b1011100011 "
#185000000
1!
b1011100100 "
#185250000
0!
b1011100101 "
#185500000
1!
b1011100110 "
#185750000
0!
b1011100111 "
#186000000
1!
b1011101000 "
#186250000
0!
b1011101001 "
#186500000
1!
b1011101010 "
#186750000
0!
b1011101011 "
#187000000
1!
b1011101100 "
#187250000
0!
b1011101101 "
#187500000
1!
b1011101110 "
#187750000
0!
b1011101111 "
#188000000
1!
b1011110000 "
#188250000
0!
b1011110001 "
#188500000
1!
b1011110010 "
#188750000
0!
b1011110011 "
#189000000
1!
b1011110100 "
#189250000
0!
b1011110101 "
#189500000
1!
b1011110110 "
#189750000
0!
b1011110111 "
#190000000
1!
b1011111000 "
#190250000
0!
b1011111001 "
#190500000
1!
b1011111010 "
#190750000
0!
b1011111011 "
#191000000
1!
b1011111100 "
#191250000
0!
b1011111101 "
#191500000
1!
b1011111110 "
#191750000
0!
b1011111111 "
#192000000
1!
b1100000000 "
#192250000
0!
b1100000001 "
#192500000
1!
b1100000010 "
#192750000
0!
b1100000011 "
#193000000
1!
b1100000100 "
#193250000
0!
b1100000101 "
#193500000
1!
b1100000110 "
#193750000
0!
b1100000111 "
#194000000
1!
b1100001000 "
#194250000
0!
b1100001001 "
#194500000
1!
b1100001010 "
#194750000
0!
b1100001011 "
#195000000
1!
b1100001100 "
#195250000
0!
b1100001101 "
#195500000
1!
b1100001110 "
#195750000
0!
b1100001111 "
#196000000
1!
b1100010000 "
#196250000
0!
b1100010001 "
#196500000
1!
b1100010010 "
#196750000
0!
b1100010011 "
#197000000
1!
b1100010100 "
#197250000
0!
b1100010101 "
#197500000
1!
b1100010110 "
#197750000
0!
b1100010111 "
#198000000
1!
b1100011000 "
#198250000
0!
b1100011001 "
#198500000
1!
b1100011010 "
#198750000
0!
b1100011011 "
#199000000
1!
b1100011100 "
#199250000
0!
b1100011101 "
#199500000
1!
b1100011110 "
#199750000
0!
b1100011111 "
#200000000
1!
b1100100000 "
#200250000
0!
b1100100001 "
#200500000
1!
b1100100010 "
#200750000
0!
b1100100011 "
#201000000
1!
b1100100100 "
#201250000
0!
b1100100101 "
#201500000
1!
b1100100110 "
#201750000
0!
b1100100111 "
#202000000
1!
b1100101000 "
#202250000
0!
b1100101001 "
#202500000
1!
b1100101010 "
#202750000
0!
b1100101011 "
#203000000
1!
b1100101100 "
#203250000
0!
b1100101101 "
#203500000
1!
b1100101110 "
#203750000
0!
b1100101111 "
#204000000
1!
b1100110000 "
#204250000
0!
b1100110001 "
#204500000
1!
b1100110010 "
#204750000
0!
b1100110011 "
#205000000
1!
b1100110100 "
#205250000
0!
b1100110101 "
#205500000
1!
b1100110110 "
#205750000
0!
b1100110111 "
#206000000
1!
b1100111000 "
#206250000
0!
b1100111001 "
#206500000
1!
b1100111010 "
#206750000
0!
b1100111011 "
#207000000
1!
b1100111100 "
#207250000
0!
b1100111101 "
#207500000
1!
b1100111110 "
#207750000
0!
b1100111111 "
#208000000
1!
b1101000000 "
#208250000
0!
b1101000001 "
#208500000
1!
b1101000010 "
#208750000
0!
b1101000011 "
#209000000
1!
b1101000100 "
#209250000
0!
b1101000101 "
#209500000
1!
b1101000110 "
#209750000
0!
b1101000111 "
#210000000
1!
b1101001000 "
#210250000
0!
b1101001001 "
#210500000
1!
b1101001010 "
#210750000
0!
b1101001011 "
#211000000
1!
b1101001100 "
#211250000
0!
b1101001101 "
#211500000
1!
b1101001110 "
#211750000
0!
b1101001111 "
#212000000
1!
b1101010000 "
#212250000
0!
b1101010001 "
#212500000
1!
b1101010010 "
#212750000
0!
b1101010011 "
#213000000
1!
b1101010100 "
#213250000
0!
b1101010101 "
#213500000
1!
b1101010110 "
#213750000
0!
b1101010111 "
#214000000
1!
b1101011000 "
#214250000
0!
b1101011001 "
#214500000
1!
b1101011010 "
#214750000
0!
b1101011011 "
#215000000
1!
b1101011100 "
#215250000
0!
b1101011101 "
#215500000
1!
b1101011110 "
#215750000
0!
b1101011111 "
#216000000
1!
b1101100000 "
#216250000
0!
b1101100001 "
#216500000
1!
b1101100010 "
#216750000
0!
b1101100011 "
#217000000
1!
b1101100100 "
#217250000
0!
b1101100101 "
#217500000
1!
b1101100110 "
#217750000
0!
b1101100111 "
#218000000
1!
b1101101000 "
#218250000
0!
b1101101001 "
#218500000
1!
b1101101010 "
#218750000
0!
b1101101011 "
#219000000
1!
b1101101100 "
#219250000
0!
b1101101101 "
#219500000
1!
b1101101110 "
#219750000
0!
b1101101111 "
#220000000
1!
b1101110000 "
#220250000
0!
b1101110001 "
#220500000
1!
b1101110010 "
#220750000
0!
b1101110011 "
#221000000
1!
b1101110100 "
#221250000
0!
b1101110101 "
#221500000
1!
b1101110110 "
#221750000
0!
b1101110111 "
#222000000
1!
b1101111000 "
#222250000
0!
b1101111001 "
#222500000
1!
b1101111010 "
#222750000
0!
b1101111011 "
#223000000
1!
b1101111100 "
#223250000
0!
b1101111101 "
#223500000
1!
b1101111110 "
#223750000
0!
b1101111111 "
#224000000
1!
b1110000000 "
#224250000
0!
b1110000001 "
#224500000
1!
b1110000010 "
#224750000
0!
b1110000011 "
#225000000
1!
b1110000100 "
#225250000
0!
b1110000101 "
#225500000
1!
b1110000110 "
#225750000
0!
b1110000111 "
#226000000
1!
b1110001000 "
#226250000
0!
b1110001001 "
#226500000
1!
b1110001010 "
#226750000
0!
b1110001011 "
#227000000
1!
b1110001100 "
#227250000
0!
b1110001101 "
#227500000
1!
b1110001110 "
#227750000
0!
b1110001111 "
#228000000
1!
b1110010000 "
#228250000
0!
b1110010001 "
#228500000
1!
b1110010010 "
#228750000
0!
b1110010011 "
#229000000
1!
b1110010100 "
#229250000
0!
b1110010101 "
#229500000
1!
b1110010110 "
#229750000
0!
b1110010111 "
#230000000
1!
b1110011000 "
#230250000
0!
b1110011001 "
#230500000
1!
b1110011010 "
#230750000
0!
b1110011011 "
#231000000
1!
b1110011100 "
#231250000
0!
b1110011101 "
#231500000
1!
b1110011110 "
#231750000
0!
b1110011111 "
#232000000
1!
b1110100000 "
#232250000
0!
b1110100001 "
#232500000
1!
b1110100010 "
#232750000
0!
b1110100011 "
#233000000
1!
b1110100100 "
#233250000
0!
b1110100101 "
#233500000
1!
b1110100110 "
#233750000
0!
b1110100111 "
#234000000
1!
b1110101000 "
#234250000
0!
b1110101001 "
#234500000
1!
b1110101010 "
#234750000
0!
b1110101011 "
#235000000
1!
b1110101100 "
#235250000
0!
b1110101101 "
#235500000
1!
b1110101110 "
#235750000
0!
b1110101111 "
#236000000
1!
b1110110000 "
#236250000
0!
b1110110001 "
#236500000
1!
b1110110010 "
#236750000
0!
b1110110011 "
#237000000
1!
b1110110100 "
#237250000
0!
b1110110101 "
#237500000
1!
b1110110110 "
#237750000
0!
b1110110111 "
#238000000
1!
b1110111000 "
#238250000
0!
b1110111001 "
#238500000
1!
b1110111010 "
#238750000
0!
b1110111011 "
#239000000
1!
b1110111100 "
#239250000
0!
b1110111101 "
#239500000
1!
b1110111110 "
#239750000
0!
b1110111111 "
#240000000
1!
b1111000000 "
#240250000
0!
b1111000001 "
#240500000
1!
b1111000010 "
#240750000
0!
b1111000011 "
#241000000
1!
b1111000100 "
#241250000
0!
b1111000101 "
