1.Blinky--ILA-Test/app/vcd_files/ila_blink_24-07-11_21-42-39_0.vcd
$date today $end
$timescale 1 ps $end
$scope module ILA_Signals $end
$var reg 1 ! counter_4 $end
$var reg 1 " clk270 $end
$var reg 1 # clk180 $end
$var reg 1 $ clk0 $end
$var reg 1 % clk $end
$var integer 11 & smp_cnt_ILA $end
$upscope $end
$enddefinitions $end
#0
$dumpvars
1!
0"
1#
0$
1%
b0 &
$end
#333333
0!
0#
1$
0%
b1 &
#666666
1"
1#
0$
1%
b10 &
#999999
1!
0"
b11 &
#1333332
0#
1$
0%
b100 &
#1666665
1"
1#
0$
1%
b101 &
#1999998
0!
0"
b110 &
#2333331
0#
1$
0%
b111 &
#2666664
1!
1"
1#
0$
1%
b1000 &
#2999997
0"
b1001 &
#3333330
0!
0#
1$
0%
b1010 &
#3666663
1"
1#
0$
1%
b1011 &
#3999996
0"
b1100 &
#4333329
1!
0#
1$
0%
b1101 &
#4666662
1"
1#
0$
1%
b1110 &
#4999995
0!
0"
b1111 &
#5333328
0#
1$
0%
b10000 &
#5666661
1"
1#
0$
1%
b10001 &
#5999994
1!
0"
b10010 &
#6333327
0#
1$
0%
b10011 &
#6666660
0!
1"
1#
0$
1%
b10100 &
#6999993
0"
b10101 &
#7333326
1!
0#
1$
0%
b10110 &
#7666659
1"
1#
0$
1%
b10111 &
#7999992
0"
b11000 &
#8333325
0!
0#
1$
0%
b11001 &
#8666658
1"
1#
0$
1%
b11010 &
#8999991
1!
0"
b11011 &
#9333324
0#
1$
0%
b11100 &
#9666657
1"
1#
0$
1%
b11101 &
#9999990
0!
0"
b11110 &
#10333323
0#
1$
0%
b11111 &
#10666656
1!
1"
1#
0$
1%
b100000 &
#10999989
0"
b100001 &
#11333322
0!
0#
1$
0%
b100010 &
#11666655
1"
1#
0$
1%
b100011 &
#11999988
0"
b100100 &
#12333321
1!
0#
1$
0%
b100101 &
#12666654
1"
1#
0$
1%
b100110 &
#12999987
0!
0"
b100111 &
#13333320
0#
1$
0%
b101000 &
#13666653
1"
1#
0$
1%
b101001 &
#13999986
1!
0"
b101010 &
#14333319
0#
1$
0%
b101011 &
#14666652
0!
1"
1#
0$
1%
b101100 &
#14999985
0"
b101101 &
#15333318
1!
0#
1$
0%
b101110 &
#15666651
1"
1#
0$
1%
b101111 &
#15999984
0"
b110000 &
#16333317
0!
0#
1$
0%
b110001 &
#16666650
1"
1#
0$
1%
b110010 &
#16999983
1!
0"
b110011 &
#17333316
0#
1$
0%
b110100 &
#17666649
1"
1#
0$
1%
b110101 &
#17999982
0!
0"
b110110 &
#18333315
0#
1$
0%
b110111 &
#18666648
1!
1"
1#
0$
1%
b111000 &
#18999981
0"
b111001 &
#19333314
0!
0#
1$
0%
b111010 &
#19666647
1"
1#
0$
1%
b111011 &
#19999980
0"
b111100 &
#20333313
1!
0#
1$
0%
b111101 &
#20666646
1"
1#
0$
1%
b111110 &
#20999979
0!
0"
b111111 &
#21333312
0#
1$
0%
b1000000 &
#21666645
1"
1#
0$
1%
b1000001 &
#21999978
1!
0"
b1000010 &
#22333311
0#
1$
0%
b1000011 &
#22666644
0!
1"
1#
0$
1%
b1000100 &
#22999977
0"
b1000101 &
#23333310
1!
0#
1$
0%
b1000110 &
#23666643
1"
1#
0$
1%
b1000111 &
#23999976
0"
b1001000 &
#24333309
0!
0#
1$
0%
b1001001 &
#24666642
1"
1#
0$
1%
b1001010 &
#24999975
1!
0"
b1001011 &
#25333308
0#
1$
0%
b1001100 &
#25666641
1"
1#
0$
1%
b1001101 &
#25999974
0!
0"
b1001110 &
#26333307
0#
1$
0%
b1001111 &
#26666640
1!
1"
1#
0$
1%
b1010000 &
#26999973
0"
b1010001 &
#27333306
0!
0#
1$
0%
b1010010 &
#27666639
1"
1#
0$
1%
b1010011 &
#27999972
0"
b1010100 &
#28333305
1!
0#
1$
0%
b1010101 &
#28666638
1"
1#
0$
1%
b1010110 &
#28999971
0!
0"
b1010111 &
#29333304
0#
1$
0%
b1011000 &
#29666637
1"
1#
0$
1%
b1011001 &
#29999970
1!
0"
b1011010 &
#30333303
0#
1$
0%
b1011011 &
#30666636
0!
1"
1#
0$
1%
b1011100 &
#30999969
0"
b1011101 &
#31333302
1!
0#
1$
0%
b1011110 &
#31666635
1"
1#
0$
1%
b1011111 &
#31999968
0"
b1100000 &
#32333301
0!
0#
1$
0%
b1100001 &
#32666634
1"
1#
0$
1%
b1100010 &
#32999967
1!
0"
b1100011 &
#33333300
0#
1$
0%
b1100100 &
#33666633
1"
1#
0$
1%
b1100101 &
#33999966
0!
0"
b1100110 &
#34333299
0#
1$
0%
b1100111 &
#34666632
1!
1"
1#
0$
1%
b1101000 &
#34999965
0"
b1101001 &
#35333298
0!
0#
1$
0%
b1101010 &
#35666631
1"
1#
0$
1%
b1101011 &
#35999964
0"
b1101100 &
#36333297
1!
0#
1$
0%
b1101101 &
#36666630
1"
1#
0$
1%
b1101110 &
#36999963
0!
0"
b1101111 &
#37333296
0#
1$
0%
b1110000 &
#37666629
1"
1#
0$
1%
b1110001 &
#37999962
1!
0"
b1110010 &
#38333295
0#
1$
0%
b1110011 &
#38666628
0!
1"
1#
0$
1%
b1110100 &
#38999961
0"
b1110101 &
#39333294
1!
0#
1$
0%
b1110110 &
#39666627
1"
1#
0$
1%
b1110111 &
#39999960
0"
b1111000 &
#40333293
0!
0#
1$
0%
b1111001 &
#40666626
1"
1#
0$
1%
b1111010 &
#40999959
1!
0"
b1111011 &
#41333292
0#
1$
0%
b1111100 &
#41666625
1"
1#
0$
1%
b1111101 &
#41999958
0!
0"
b1111110 &
#42333291
0#
1$
0%
b1111111 &
#42666624
1!
1"
1#
0$
1%
b10000000 &
#42999957
0"
b10000001 &
#43333290
0!
0#
1$
0%
b10000010 &
#43666623
1"
1#
0$
1%
b10000011 &
#43999956
0"
b10000100 &
#44333289
1!
0#
1$
0%
b10000101 &
#44666622
1"
1#
0$
1%
b10000110 &
#44999955
0!
0"
b10000111 &
#45333288
0#
1$
0%
b10001000 &
#45666621
1"
1#
0$
1%
b10001001 &
#45999954
1!
0"
b10001010 &
#46333287
0#
1$
0%
b10001011 &
#46666620
0!
1"
1#
0$
1%
b10001100 &
#46999953
0"
b10001101 &
#47333286
1!
0#
1$
0%
b10001110 &
#47666619
1"
1#
0$
1%
b10001111 &
#47999952
0"
b10010000 &
#48333285
0!
0#
1$
0%
b10010001 &
#48666618
1"
1#
0$
1%
b10010010 &
#48999951
1!
0"
b10010011 &
#49333284
0#
1$
0%
b10010100 &
#49666617
1"
1#
0$
1%
b10010101 &
#49999950
0!
0"
b10010110 &
#50333283
0#
1$
0%
b10010111 &
#50666616
1!
1"
1#
0$
1%
b10011000 &
#50999949
0"
b10011001 &
#51333282
0!
0#
1$
0%
b10011010 &
#51666615
1"
1#
0$
1%
b10011011 &
#51999948
0"
b10011100 &
#52333281
1!
0#
1$
0%
b10011101 &
#52666614
1"
1#
0$
1%
b10011110 &
#52999947
0!
0"
b10011111 &
#53333280
0#
1$
0%
b10100000 &
#53666613
1"
1#
0$
1%
b10100001 &
#53999946
1!
0"
b10100010 &
#54333279
0#
1$
0%
b10100011 &
#54666612
0!
1"
1#
0$
1%
b10100100 &
#54999945
0"
b10100101 &
#55333278
1!
0#
1$
0%
b10100110 &
#55666611
1"
1#
0$
1%
b10100111 &
#55999944
0"
b10101000 &
#56333277
0!
0#
1$
0%
b10101001 &
#56666610
1"
1#
0$
1%
b10101010 &
#56999943
1!
0"
b10101011 &
#57333276
0#
1$
0%
b10101100 &
#57666609
1"
1#
0$
1%
b10101101 &
#57999942
0!
0"
b10101110 &
#58333275
0#
1$
0%
b10101111 &
#58666608
1!
1"
1#
0$
1%
b10110000 &
#58999941
0"
b10110001 &
#59333274
0!
0#
1$
0%
b10110010 &
#59666607
1"
1#
0$
1%
b10110011 &
#59999940
0"
b10110100 &
#60333273
1!
0#
1$
0%
b10110101 &
#60666606
1"
1#
0$
1%
b10110110 &
#60999939
0!
0"
b10110111 &
#61333272
0#
1$
0%
b10111000 &
#61666605
1"
1#
0$
1%
b10111001 &
#61999938
1!
0"
b10111010 &
#62333271
0#
1$
0%
b10111011 &
#62666604
0!
1"
1#
0$
1%
b10111100 &
#62999937
0"
b10111101 &
#63333270
1!
0#
1$
0%
b10111110 &
#63666603
1"
1#
0$
1%
b10111111 &
#63999936
0"
b11000000 &
#64333269
0!
0#
1$
0%
b11000001 &
#64666602
1"
1#
0$
1%
b11000010 &
#64999935
1!
0"
b11000011 &
#65333268
0#
1$
0%
b11000100 &
#65666601
1"
1#
0$
1%
b11000101 &
#65999934
0!
0"
b11000110 &
#66333267
0#
1$
0%
b11000111 &
#66666600
1!
1"
1#
0$
1%
b11001000 &
#66999933
0"
b11001001 &
#67333266
0!
0#
1$
0%
b11001010 &
#67666599
1"
1#
0$
1%
b11001011 &
#67999932
0"
b11001100 &
#68333265
1!
0#
1$
0%
b11001101 &
#68666598
1"
1#
0$
1%
b11001110 &
#68999931
0!
0"
b11001111 &
#69333264
0#
1$
0%
b11010000 &
#69666597
1"
1#
0$
1%
b11010001 &
#69999930
1!
0"
b11010010 &
#70333263
0#
1$
0%
b11010011 &
#70666596
0!
1"
1#
0$
1%
b11010100 &
#70999929
0"
b11010101 &
#71333262
1!
0#
1$
0%
b11010110 &
#71666595
1"
1#
0$
1%
b11010111 &
#71999928
0"
b11011000 &
#72333261
0!
0#
1$
0%
b11011001 &
#72666594
1"
1#
0$
1%
b11011010 &
#72999927
1!
0"
b11011011 &
#73333260
0#
1$
0%
b11011100 &
#73666593
1"
1#
0$
1%
b11011101 &
#73999926
0!
0"
b11011110 &
#74333259
0#
1$
0%
b11011111 &
#74666592
1!
1"
1#
0$
1%
b11100000 &
#74999925
0"
b11100001 &
#75333258
0!
0#
1$
0%
b11100010 &
#75666591
1"
1#
0$
1%
b11100011 &
#75999924
0"
b11100100 &
#76333257
1!
0#
1$
0%
b11100101 &
#76666590
1"
1#
0$
1%
b11100110 &
#76999923
0!
0"
b11100111 &
#77333256
0#
1$
0%
b11101000 &
#77666589
1"
1#
0$
1%
b11101001 &
#77999922
1!
0"
b11101010 &
#78333255
0#
1$
0%
b11101011 &
#78666588
0!
1"
1#
0$
1%
b11101100 &
#78999921
0"
b11101101 &
#79333254
1!
0#
1$
0%
b11101110 &
#79666587
1"
1#
0$
1%
b11101111 &
#79999920
0"
b11110000 &
#80333253
0!
0#
1$
0%
b11110001 &
#80666586
1"
1#
0$
1%
b11110010 &
#80999919
1!
0"
b11110011 &
#81333252
0#
1$
0%
b11110100 &
#81666585
1"
1#
0$
1%
b11110101 &
#81999918
0!
0"
b11110110 &
#82333251
0#
1$
0%
b11110111 &
#82666584
1!
1"
1#
0$
1%
b11111000 &
#82999917
0"
b11111001 &
#83333250
0!
0#
1$
0%
b11111010 &
#83666583
1"
1#
0$
1%
b11111011 &
#83999916
0"
b11111100 &
#84333249
1!
0#
1$
0%
b11111101 &
#84666582
1"
1#
0$
1%
b11111110 &
#84999915
0!
0"
b11111111 &
#85333248
0#
1$
0%
b100000000 &
#85666581
1"
1#
0$
1%
b100000001 &
#85999914
1!
0"
b100000010 &
#86333247
0#
1$
0%
b100000011 &
#86666580
0!
1"
1#
0$
1%
b100000100 &
#86999913
0"
b100000101 &
#87333246
1!
0#
1$
0%
b100000110 &
#87666579
1"
1#
0$
1%
b100000111 &
#87999912
0"
b100001000 &
#88333245
0!
0#
1$
0%
b100001001 &
#88666578
1"
1#
0$
1%
b100001010 &
#88999911
1!
0"
b100001011 &
#89333244
0#
1$
0%
b100001100 &
#89666577
1"
1#
0$
1%
b100001101 &
#89999910
0!
0"
b100001110 &
#90333243
0#
1$
0%
b100001111 &
#90666576
1!
1"
1#
0$
1%
b100010000 &
#90999909
0"
b100010001 &
#91333242
0!
0#
1$
0%
b100010010 &
#91666575
1"
1#
0$
1%
b100010011 &
#91999908
0"
b100010100 &
#92333241
1!
0#
1$
0%
b100010101 &
#92666574
1"
1#
0$
1%
b100010110 &
#92999907
0!
0"
b100010111 &
#93333240
0#
1$
0%
b100011000 &
#93666573
1"
1#
0$
1%
b100011001 &
#93999906
1!
0"
b100011010 &
#94333239
0#
1$
0%
b100011011 &
#94666572
0!
1"
1#
0$
1%
b100011100 &
#94999905
0"
b100011101 &
#95333238
1!
0#
1$
0%
b100011110 &
#95666571
1"
1#
0$
1%
b100011111 &
#95999904
0"
b100100000 &
#96333237
0!
0#
1$
0%
b100100001 &
#96666570
1"
1#
0$
1%
b100100010 &
#96999903
1!
0"
b100100011 &
#97333236
0#
1$
0%
b100100100 &
#97666569
1"
1#
0$
1%
b100100101 &
#97999902
0!
0"
b100100110 &
#98333235
0#
1$
0%
b100100111 &
#98666568
1!
1"
1#
0$
1%
b100101000 &
#98999901
0"
b100101001 &
#99333234
0!
0#
1$
0%
b100101010 &
#99666567
1"
1#
0$
1%
b100101011 &
#99999900
0"
b100101100 &
#100333233
1!
0#
1$
0%
b100101101 &
#100666566
1"
1#
0$
1%
b100101110 &
#100999899
0!
0"
b100101111 &
#101333232
0#
1$
0%
b100110000 &
#101666565
1"
1#
0$
1%
b100110001 &
#101999898
1!
0"
b100110010 &
#102333231
0#
1$
0%
b100110011 &
#102666564
0!
1"
1#
0$
1%
b100110100 &
#102999897
0"
b100110101 &
#103333230
1!
0#
1$
0%
b100110110 &
#103666563
1"
1#
0$
1%
b100110111 &
#103999896
0"
b100111000 &
#104333229
0!
0#
1$
0%
b100111001 &
#104666562
1"
1#
0$
1%
b100111010 &
#104999895
1!
0"
b100111011 &
#105333228
0#
1$
0%
b100111100 &
#105666561
1"
1#
0$
1%
b100111101 &
#105999894
0!
0"
b100111110 &
#106333227
0#
1$
0%
b100111111 &
#106666560
1!
1"
1#
0$
1%
b101000000 &
#106999893
0"
b101000001 &
#107333226
0!
0#
1$
0%
b101000010 &
#107666559
1"
1#
0$
1%
b101000011 &
#107999892
0"
b101000100 &
#108333225
1!
0#
1$
0%
b101000101 &
#108666558
1"
1#
0$
1%
b101000110 &
#108999891
0!
0"
b101000111 &
#109333224
0#
1$
0%
b101001000 &
#109666557
1"
1#
0$
1%
b101001001 &
#109999890
1!
0"
b101001010 &
#110333223
0#
1$
0%
b101001011 &
#110666556
0!
1"
1#
0$
1%
b101001100 &
#110999889
0"
b101001101 &
#111333222
1!
0#
1$
0%
b101001110 &
#111666555
1"
1#
0$
1%
b101001111 &
#111999888
0"
b101010000 &
#112333221
0!
0#
1$
0%
b101010001 &
#112666554
1"
1#
0$
1%
b101010010 &
#112999887
1!
0"
b101010011 &
#113333220
0#
1$
0%
b101010100 &
#113666553
1"
1#
0$
1%
b101010101 &
#113999886
0!
0"
b101010110 &
#114333219
0#
1$
0%
b101010111 &
#114666552
1!
1"
1#
0$
1%
b101011000 &
#114999885
0"
b101011001 &
#115333218
0!
0#
1$
0%
b101011010 &
#115666551
1"
1#
0$
1%
b101011011 &
#115999884
0"
b101011100 &
#116333217
1!
0#
1$
0%
b101011101 &
#116666550
1"
1#
0$
1%
b101011110 &
#116999883
0!
0"
b101011111 &
#117333216
0#
1$
0%
b101100000 &
#117666549
1"
1#
0$
1%
b101100001 &
#117999882
1!
0"
b101100010 &
#118333215
0#
1$
0%
b101100011 &
#118666548
0!
1"
1#
0$
1%
b101100100 &
#118999881
0"
b101100101 &
#119333214
1!
0#
1$
0%
b101100110 &
#119666547
1"
1#
0$
1%
b101100111 &
#119999880
0"
b101101000 &
#120333213
0!
0#
1$
0%
b101101001 &
#120666546
1"
1#
0$
1%
b101101010 &
#120999879
1!
0"
b101101011 &
#121333212
0#
1$
0%
b101101100 &
#121666545
1"
1#
0$
1%
b101101101 &
#121999878
0!
0"
b101101110 &
#122333211
0#
1$
0%
b101101111 &
#122666544
1!
1"
1#
0$
1%
b101110000 &
#122999877
0"
b101110001 &
#123333210
0!
0#
1$
0%
b101110010 &
#123666543
1"
1#
0$
1%
b101110011 &
#123999876
0"
b101110100 &
#124333209
1!
0#
1$
0%
b101110101 &
#124666542
1"
1#
0$
1%
b101110110 &
#124999875
0!
0"
b101110111 &
#125333208
0#
1$
0%
b101111000 &
#125666541
1"
1#
0$
1%
b101111001 &
#125999874
1!
0"
b101111010 &
#126333207
0#
1$
0%
b101111011 &
#126666540
0!
1"
1#
0$
1%
b101111100 &
#126999873
0"
b101111101 &
#127333206
1!
0#
1$
0%
b101111110 &
#127666539
1"
1#
0$
1%
b101111111 &
#127999872
0"
b110000000 &
#128333205
0!
0#
1$
0%
b110000001 &
#128666538
1"
1#
0$
1%
b110000010 &
#128999871
1!
0"
b110000011 &
#129333204
0#
1$
0%
b110000100 &
#129666537
1"
1#
0$
1%
b110000101 &
#129999870
0!
0"
b110000110 &
#130333203
0#
1$
0%
b110000111 &
#130666536
1!
1"
1#
0$
1%
b110001000 &
#130999869
0"
b110001001 &
#131333202
0!
0#
1$
0%
b110001010 &
#131666535
1"
1#
0$
1%
b110001011 &
#131999868
0"
b110001100 &
#132333201
1!
0#
1$
0%
b110001101 &
#132666534
1"
1#
0$
1%
b110001110 &
#132999867
0!
0"
b110001111 &
#133333200
0#
1$
0%
b110010000 &
#133666533
1"
1#
0$
1%
b110010001 &
#133999866
1!
0"
b110010010 &
#134333199
0#
1$
0%
b110010011 &
#134666532
0!
1"
1#
0$
1%
b110010100 &
#134999865
0"
b110010101 &
#135333198
1!
0#
1$
0%
b110010110 &
#135666531
1"
1#
0$
1%
b110010111 &
#135999864
0"
b110011000 &
#136333197
0!
0#
1$
0%
b110011001 &
#136666530
1"
1#
0$
1%
b110011010 &
#136999863
1!
0"
b110011011 &
#137333196
0#
1$
0%
b110011100 &
#137666529
1"
1#
0$
1%
b110011101 &
#137999862
0!
0"
b110011110 &
#138333195
0#
1$
0%
b110011111 &
#138666528
1!
1"
1#
0$
1%
b110100000 &
#138999861
0"
b110100001 &
#139333194
0!
0#
1$
0%
b110100010 &
#139666527
1"
1#
0$
1%
b110100011 &
#139999860
0"
b110100100 &
#140333193
1!
0#
1$
0%
b110100101 &
#140666526
1"
1#
0$
1%
b110100110 &
#140999859
0!
0"
b110100111 &
#141333192
0#
1$
0%
b110101000 &
#141666525
1"
1#
0$
1%
b110101001 &
#141999858
1!
0"
b110101010 &
#142333191
0#
1$
0%
b110101011 &
#142666524
0!
1"
1#
0$
1%
b110101100 &
#142999857
0"
b110101101 &
#143333190
1!
0#
1$
0%
b110101110 &
#143666523
1"
1#
0$
1%
b110101111 &
#143999856
0"
b110110000 &
#144333189
0!
0#
1$
0%
b110110001 &
#144666522
1"
1#
0$
1%
b110110010 &
#144999855
1!
0"
b110110011 &
#145333188
0#
1$
0%
b110110100 &
#145666521
1"
1#
0$
1%
b110110101 &
#145999854
0!
0"
b110110110 &
#146333187
0#
1$
0%
b110110111 &
#146666520
1!
1"
1#
0$
1%
b110111000 &
#146999853
0"
b110111001 &
#147333186
0!
0#
1$
0%
b110111010 &
#147666519
1"
1#
0$
1%
b110111011 &
#147999852
0"
b110111100 &
#148333185
1!
0#
1$
0%
b110111101 &
#148666518
1"
1#
0$
1%
b110111110 &
#148999851
0!
0"
b110111111 &
#149333184
0#
1$
0%
b111000000 &
#149666517
1"
1#
0$
1%
b111000001 &
#149999850
1!
0"
b111000010 &
#150333183
0#
1$
0%
b111000011 &
#150666516
0!
1"
1#
0$
1%
b111000100 &
#150999849
0"
b111000101 &
#151333182
1!
0#
1$
0%
b111000110 &
#151666515
1"
1#
0$
1%
b111000111 &
#151999848
0"
b111001000 &
#152333181
0!
0#
1$
0%
b111001001 &
#152666514
1"
1#
0$
1%
b111001010 &
#152999847
1!
0"
b111001011 &
#153333180
0#
1$
0%
b111001100 &
#153666513
1"
1#
0$
1%
b111001101 &
#153999846
0!
0"
b111001110 &
#154333179
0#
1$
0%
b111001111 &
#154666512
1!
1"
1#
0$
1%
b111010000 &
#154999845
0"
b111010001 &
#155333178
0!
0#
1$
0%
b111010010 &
#155666511
1"
1#
0$
1%
b111010011 &
#155999844
0"
b111010100 &
#156333177
1!
0#
1$
0%
b111010101 &
#156666510
1"
1#
0$
1%
b111010110 &
#156999843
0!
0"
b111010111 &
#157333176
0#
1$
0%
b111011000 &
#157666509
1"
1#
0$
1%
b111011001 &
#157999842
1!
0"
b111011010 &
#158333175
0#
1$
0%
b111011011 &
#158666508
0!
1"
1#
0$
1%
b111011100 &
#158999841
0"
b111011101 &
#159333174
1!
0#
1$
0%
b111011110 &
#159666507
1"
1#
0$
1%
b111011111 &
#159999840
0"
b111100000 &
#160333173
0!
0#
1$
0%
b111100001 &
#160666506
1"
1#
0$
1%
b111100010 &
#160999839
1!
0"
b111100011 &
#161333172
0#
1$
0%
b111100100 &
#161666505
1"
1#
0$
1%
b111100101 &
#161999838
0!
0"
b111100110 &
#162333171
0#
1$
0%
b111100111 &
#162666504
1!
1"
1#
0$
1%
b111101000 &
#162999837
0"
b111101001 &
#163333170
0!
0#
1$
0%
b111101010 &
#163666503
1"
1#
0$
1%
b111101011 &
#163999836
0"
b111101100 &
#164333169
1!
0#
1$
0%
b111101101 &
#164666502
1"
1#
0$
1%
b111101110 &
#164999835
0!
0"
b111101111 &
#165333168
0#
1$
0%
b111110000 &
#165666501
1"
1#
0$
1%
b111110001 &
#165999834
1!
0"
b111110010 &
#166333167
0#
1$
0%
b111110011 &
#166666500
0!
1"
1#
0$
1%
b111110100 &
#166999833
0"
b111110101 &
#167333166
1!
0#
1$
0%
b111110110 &
#167666499
1"
1#
0$
1%
b111110111 &
#167999832
0"
b111111000 &
#168333165
0!
0#
1$
0%
b111111001 &
#168666498
1"
1#
0$
1%
b111111010 &
#168999831
1!
0"
b111111011 &
#169333164
0#
1$
0%
b111111100 &
#169666497
1"
1#
0$
1%
b111111101 &
#169999830
0!
0"
b111111110 &
#170333163
0#
1$
0%
b111111111 &
#170666496
b1000000000 &
